with head

  {
    growEditionSizeTo: 1000,
    layersOrder: [
      { name: "Background" },
      { name: "Body" },
      { name: "Pants" },
      { name: "Shirts" },
      { name: "Jackets" },
      { name: "Tattoos" },
      { name: "Boots" },
      { name: "Buckle" },
      { name: "Head" },
    ],
  },


  {
    growEditionSizeTo: 1000,
    layersOrder: [
      { name: "Background" },
      { name: "Body" },
      { name: "Pants" },
      { name: "Shirts" },
      { name: "Jackets" },
      { name: "Tattoos" },
      { name: "Boots" },
      { name: "Buckle" },
      { name: "Teeth" },
            { name: "Head" },
    ],
  },

  {
    growEditionSizeTo: 1000,
    layersOrder: [
      { name: "Background" },
      { name: "Body" },
      { name: "Pants" },
      { name: "Shirts" },
      { name: "Jackets" },
      { name: "Tattoos" },
      { name: "Boots" },
      { name: "Buckle" },
      { name: "Beards" },
            { name: "Head" },
    ],
  },

  {
    growEditionSizeTo: 1000,
    layersOrder: [
      { name: "Background" },
      { name: "Body" },
      { name: "Pants" },
      { name: "Shirts" },
      { name: "Jackets" },
      { name: "Tattoos" },
      { name: "Boots" },
      { name: "Buckle" },
      { name: "Tongue" },
            { name: "Head" },
    ],
  },

  {
    growEditionSizeTo: 1000,
    layersOrder: [
      { name: "Background" },
      { name: "Body" },
      { name: "Pants" },
      { name: "Shirts" },
      { name: "Jackets" },
      { name: "Tattoos" },
      { name: "Boots" },
      { name: "Buckle" },
      { name: "Beards" },
      { name: "Teeth" },
            { name: "Head" },
    ],
  },

  {
    growEditionSizeTo: 1000,
    layersOrder: [
      { name: "Background" },
      { name: "Body" },
      { name: "Pants" },
      { name: "Shirts" },
      { name: "Jackets" },
      { name: "Tattoos" },
      { name: "Boots" },
      { name: "Buckle" },
      { name: "Beards" },
      { name: "Tongue" },
            { name: "Head" },
    ],
  },

  {
    growEditionSizeTo: 1000,
    layersOrder: [
      { name: "Background" },
      { name: "Body" },
      { name: "Pants" },
      { name: "Shirts" },
      { name: "Jackets" },
      { name: "Tattoos" },
      { name: "Boots" },
      { name: "Buckle" },
      { name: "Teeth" },
      { name: "Tongue" },
            { name: "Head" },
    ],
  },

  {
    growEditionSizeTo: 1000,
    layersOrder: [
      { name: "Background" },
      { name: "Body" },
      { name: "Pants" },
      { name: "Shirts" },
      { name: "Jackets" },
      { name: "Tattoos" },
      { name: "Boots" },
      { name: "Buckle" },
      { name: "Mask" },
            { name: "Head" },
    ],
  },

  {
    growEditionSizeTo: 1000,
    layersOrder: [
      { name: "Background" },
      { name: "Body" },
      { name: "Pants" },
      { name: "Shirts" },
      { name: "Jackets" },
      { name: "Tattoos" },
      { name: "Boots" },
      { name: "Buckle" },
      { name: "Beards" },
      { name: "Mask" },
            { name: "Head" },
    ],
  },





  {
    growEditionSizeTo: 1000,
    layersOrder: [
      { name: "Background" },
      { name: "WomenBody" },
      { name: "Pants" },
      { name: "WomenShirts" },
      { name: "WomenJackets" },
      { name: "WomenTattoos" },
      { name: "Boots" },
      { name: "Buckle" },
            { name: "WomenHead" },
    ],
  },


  {
    growEditionSizeTo: 1000,
    layersOrder: [
      { name: "Background" },
      { name: "WomenBody" },
      { name: "Pants" },
      { name: "WomenShirts" },
      { name: "WomenJackets" },
      { name: "WomenTattoos" },
      { name: "Boots" },
      { name: "Buckle" },
      { name: "Teeth" },
            { name: "WomenHead" },
    ],
  },

  {
    growEditionSizeTo: 1000,
    layersOrder: [
      { name: "Background" },
      { name: "WomenBody" },
      { name: "Pants" },
      { name: "WomenShirts" },
      { name: "WomenJackets" },
      { name: "WomenTattoos" },
      { name: "Tattoos" },
      { name: "Boots" },
      { name: "Buckle" },
      { name: "Tongue" },
            { name: "WomenHead" },
    ],
  },

  {
    growEditionSizeTo: 1000,
    layersOrder: [
      { name: "Background" },
      { name: "WomenBody" },
      { name: "Pants" },
      { name: "WomenShirts" },
      { name: "WomenJackets" },
      { name: "WomenTattoos" },
      { name: "Boots" },
      { name: "Buckle" },
      { name: "Teeth" },
      { name: "Tongue" },
            { name: "WomenHead" },
    ],
  },

  {
    growEditionSizeTo: 1000,
    layersOrder: [
      { name: "Background" },
      { name: "WomenBody" },
      { name: "Pants" },
      { name: "WomenShirts" },
      { name: "WomenJackets" },
      { name: "WomenTattoos" },
      { name: "Boots" },
      { name: "Buckle" },
      { name: "Mask" },
            { name: "WomenHead" },
    ],
  },


    {
    growEditionSizeTo: 1000,
    layersOrder: [
      { name: "Background" },
      { name: "Body" },
      { name: "Pants" },
      { name: "Shirts" },
      { name: "Jackets" },
      { name: "Tattoos" },
      { name: "Boots" },
      { name: "Buckle" },
      { name: "Glasses" },
            { name: "Head" },
    ],
  },


  {
    growEditionSizeTo: 1000,
    layersOrder: [
      { name: "Background" },
      { name: "Body" },
      { name: "Pants" },
      { name: "Shirts" },
      { name: "Jackets" },
      { name: "Tattoos" },
      { name: "Boots" },
      { name: "Buckle" },
      { name: "Teeth" },
      { name: "Glasses" },
            { name: "Head" },
    ],
  },

  {
    growEditionSizeTo: 1000,
    layersOrder: [
      { name: "Background" },
      { name: "Body" },
      { name: "Pants" },
      { name: "Shirts" },
      { name: "Jackets" },
      { name: "Tattoos" },
      { name: "Boots" },
      { name: "Buckle" },
      { name: "Beards" },
      { name: "Glasses" },
            { name: "Head" },
    ],
  },

  {
    growEditionSizeTo: 1000,
    layersOrder: [
      { name: "Background" },
      { name: "Body" },
      { name: "Pants" },
      { name: "Shirts" },
      { name: "Jackets" },
      { name: "Tattoos" },
      { name: "Boots" },
      { name: "Buckle" },
      { name: "Tongue" },
      { name: "Glasses" },
            { name: "Head" },
    ],
  },

  {
    growEditionSizeTo: 1000,
    layersOrder: [
      { name: "Background" },
      { name: "Body" },
      { name: "Pants" },
      { name: "Shirts" },
      { name: "Jackets" },
      { name: "Tattoos" },
      { name: "Boots" },
      { name: "Buckle" },
      { name: "Beards" },
      { name: "Teeth" },
      { name: "Glasses" },
            { name: "Head" },
    ],
  },

  {
    growEditionSizeTo: 1000,
    layersOrder: [
      { name: "Background" },
      { name: "Body" },
      { name: "Pants" },
      { name: "Shirts" },
      { name: "Jackets" },
      { name: "Tattoos" },
      { name: "Boots" },
      { name: "Buckle" },
      { name: "Beards" },
      { name: "Tongue" },
      { name: "Glasses" },
            { name: "Head" },
    ],
  },

  {
    growEditionSizeTo: 1000,
    layersOrder: [
      { name: "Background" },
      { name: "Body" },
      { name: "Pants" },
      { name: "Shirts" },
      { name: "Jackets" },
      { name: "Tattoos" },
      { name: "Boots" },
      { name: "Buckle" },
      { name: "Teeth" },
      { name: "Tongue" },
      { name: "Glasses" },
            { name: "Head" },
    ],
  },

  {
    growEditionSizeTo: 1000,
    layersOrder: [
      { name: "Background" },
      { name: "Body" },
      { name: "Pants" },
      { name: "Shirts" },
      { name: "Jackets" },
      { name: "Tattoos" },
      { name: "Boots" },
      { name: "Buckle" },
      { name: "Mask" },
      { name: "Glasses" },
            { name: "Head" },
    ],
  },

  {
    growEditionSizeTo: 1000,
    layersOrder: [
      { name: "Background" },
      { name: "Body" },
      { name: "Pants" },
      { name: "Shirts" },
      { name: "Jackets" },
      { name: "Tattoos" },
      { name: "Boots" },
      { name: "Buckle" },
      { name: "Beards" },
      { name: "Mask" },
      { name: "Glasses" },
            { name: "Head" },
    ],
  },


  {
    growEditionSizeTo: 1000,
    layersOrder: [
      { name: "Background" },
      { name: "WomenBody" },
      { name: "Pants" },
      { name: "WomenShirts" },
      { name: "WomenJackets" },
      { name: "WomenTattoos" },
      { name: "Boots" },
      { name: "Buckle" },
      { name: "Glasses" },
            { name: "WomenHead" },
    ],
  },


  {
    growEditionSizeTo: 1000,
    layersOrder: [
      { name: "Background" },
      { name: "WomenBody" },
      { name: "Pants" },
      { name: "WomenShirts" },
      { name: "WomenJackets" },
      { name: "WomenTattoos" },
      { name: "Boots" },
      { name: "Buckle" },
      { name: "Teeth" },
      { name: "Glasses" },
            { name: "WomenHead" },
    ],
  },

  {
    growEditionSizeTo: 1000,
    layersOrder: [
      { name: "Background" },
      { name: "WomenBody" },
      { name: "Pants" },
      { name: "WomenShirts" },
      { name: "WomenJackets" },
      { name: "WomenTattoos" },
      { name: "Tattoos" },
      { name: "Boots" },
      { name: "Buckle" },
      { name: "Tongue" },
      { name: "Glasses" },
            { name: "WomenHead" },
    ],
  },

  {
    growEditionSizeTo: 1000,
    layersOrder: [
      { name: "Background" },
      { name: "WomenBody" },
      { name: "Pants" },
      { name: "WomenShirts" },
      { name: "WomenJackets" },
      { name: "WomenTattoos" },
      { name: "Boots" },
      { name: "Buckle" },
      { name: "Teeth" },
      { name: "Tongue" },
      { name: "Glasses" },
            { name: "WomenHead" },
    ],
  },

  {
    growEditionSizeTo: 1000,
    layersOrder: [
      { name: "Background" },
      { name: "WomenBody" },
      { name: "Pants" },
      { name: "WomenShirts" },
      { name: "WomenJackets" },
      { name: "WomenTattoos" },
      { name: "Boots" },
      { name: "Buckle" },
      { name: "Mask" },
      { name: "Glasses" },
            { name: "WomenHead" },
    ],
  },




